{
  "data": [
    {
      "id": "1",
      "ref": "TR-88421",
      "from_label": "Cocody, Angré",
      "to_label": "Plateau, BCEAO",
      "from_lat": 5.3654,
      "from_lng": -3.9872,
      "to_lat": 5.3197,
      "to_lng": -4.0128,
      "client_name": "Koné Aïcha",
      "client_phone": "+225 07 55 44 33 22",
      "service": "taxi",
      "payment_method": "cash",
      "status": "completed",
      "amount_fcfa": 4500,
      "driver_id": 101,
      "driver_name": "Kouassi Jean",
      "driver_phone": "+225 07 12 34 56 78",
      "notes": "Client devant l'immeuble Palmiers",
      "created_at": "2026-06-02T14:32:00Z"
    },
    {
      "id": "2",
      "ref": "TR-88435",
      "from_label": "Ma position · Cocody, Riviera 2",
      "to_label": "Marcory, Zone 4",
      "from_lat": 5.3512,
      "from_lng": -3.9785,
      "to_lat": 5.3012,
      "to_lng": -3.9856,
      "client_name": "Bamba Serge",
      "client_phone": "+225 01 22 33 44 55",
      "service": "taxi",
      "payment_method": "orange_money",
      "status": "in_progress",
      "amount_fcfa": 5200,
      "driver_id": 101,
      "driver_name": "Kouassi Jean",
      "driver_phone": "+225 07 12 34 56 78",
      "created_at": "2026-06-02T15:10:00Z"
    },
    {
      "id": "5",
      "ref": "TR-88419",
      "from_label": "Plateau, Immeuble SCIAM",
      "to_label": "Plateau, Zone 4",
      "from_lat": 5.324,
      "from_lng": -4.015,
      "to_lat": 5.318,
      "to_lng": -4.008,
      "client_name": "Société BTP CI",
      "client_phone": "+225 27 20 30 40 50",
      "service": "delivery",
      "payment_method": "cash",
      "status": "in_progress",
      "amount_fcfa": 2800,
      "driver_id": 102,
      "driver_name": "Traoré Aminata",
      "driver_phone": "+225 05 98 76 54 32",
      "created_at": "2026-06-02T14:20:00Z"
    },
    {
      "id": "3",
      "ref": "TR-88440",
      "from_label": "Ma position · Deux Plateaux",
      "to_label": "Point carte · 5.3198, -4.0156",
      "from_lat": 5.3598,
      "from_lng": -3.9987,
      "to_lat": 5.3198,
      "to_lng": -4.0156,
      "client_name": "Entreprise Palmiers",
      "client_phone": "+225 07 00 00 12 12",
      "service": "delivery",
      "payment_method": "wallet",
      "status": "matching",
      "amount_fcfa": 3800,
      "created_at": "2026-06-02T15:45:00Z"
    },
    {
      "id": "4",
      "ref": "TR-88390",
      "from_label": "Adjamé, Gare routière",
      "to_label": "Yopougon, Siporex",
      "from_lat": 5.3533,
      "from_lng": -4.0289,
      "to_lat": 5.3389,
      "to_lng": -4.0712,
      "client_name": "Diallo Fatou",
      "client_phone": "+225 05 66 77 88 99",
      "service": "taxi",
      "payment_method": "cash",
      "status": "cancelled",
      "amount_fcfa": 6100,
      "created_at": "2026-06-01T18:20:00Z"
    }
  ],
  "meta": { "total": 49, "per_page": 25, "current_page": 1, "last_page": 2 }
}
